id;min;value;max;scale;checkRange
0;0;1.07;999.99;;0
1;;vpn4log;;;0
3;0;0;1;;1
4;0;0;0;[EV];1
5;1;1;2;;1
6;0;0;0;[EV];1
7;0;0;1;;1
8;0;0;0;[EV];1
9;;V4L0-YYMM-nnnn-nnnn;;;0
10;;Device type;;;0
51;;vpn4log;;;0
52;;456852;;;0
53;0;53;1000;[EV];1
54;0;54;1000;[EV];1
55;0;55;1000;[EV];1
56;0;56;1000;[EV];1
101;0.0.0.0;192.168.19.77;255.255.255.255;;0
102;0.0.0.0;255.255.255.0;255.255.255.255;;0
103;0.0.0.0;192.168.19.1;255.255.255.255;;0
104;1;1;7;;1
105;1;1;1;;1
111;0;10000;65535;;1
112;0;2;2;;1
113;0;2;2;;1
114;0;1;1;;1
115;0;1;1;;1
116;0;2;2;;1
117;0;1;1;;1
118;0;2;2;;1
119;0;1;1;;1
120;0;1;1;;1
121;0;1;1;;1
122;0;2;2;;1
131;0;587;65535;;1
132;0;0;1;[EV];1
133;;;;;0
134;;;;;0
135;;;;;0
136;1;1;1;;1
137;;;;;0
138;;;;;0
139;0;0;2;;1
140;0;140;1000;;1
141;0;141;1000;[EV];1
145;0;123;65535;;1
146;;0.ch.pool.ntp.org;;;0
151;0;0;65535;;1
152;;;;;0
153;;;;;0
154;;;;;0
155;;;;;0
156;0;0;4;;1
157;0;0;4;;1
158;0;0;2;;1
159;0;0;2;;1
160;0;0;1;;1
201;0.0.0.0;0.0.0.0;255.255.255.255;;0
202;0.0.0.0;0.0.0.0;255.255.255.255;;0
203;0.0.0.0;0.0.0.0;255.255.255.255;;0
204;0;0;0;;0
205;0;0;0;;0
211;0;0;0;;0
212;0;0;0;;0
213;0;0;0;;0
214;0;0;0;;0
215;0;0;0;;0
216;0;0;0;;0
217;0;0;0;;0
218;0;0;0;;0
219;0;0;0;;0
220;0;0;0;;0
221;0;0;0;;0
222;0;0;0;;0
231;0;0;0;;0
241;0;0;0;;0
251;0.0.0.0;0.0.0.0;255.255.255.255;;0
252;0.0.0.0;0.0.0.0;255.255.255.255;;0
253;0.0.0.0;0.0.0.0;255.255.255.255;;0
254;0;0;0;;0
255;0;0;0;;0
261;0;0;0;;0
262;0;0;0;;0
263;0;0;0;;0
264;0;0;0;;0
265;0;0;0;;0
266;0;0;0;;0
267;0;0;0;;0
268;0;0;0;;0
269;0;0;0;;0
270;0;0;0;;0
271;0;0;0;;0
272;0;0;0;;0
281;0;0;0;;0
291;0;0;0;;0
300;0;0;0;;0
301;0;0;0;;0
302;0;0;0;[mV]/[uA];0
303;0;0;0;[mV]/[uA];0
304;0;0;0;;0
305;0;0;0;;0
306;0;0;0;;0
307;0;0;0;[min];0
308;0;0;0;[EV];0
309;0;0;0;[EV];0
311;0;0;0;;0
312;0;0;0;[mV]/[uA];0
313;0;0;0;[mV]/[uA];0
314;0;0;0;;0
315;0;0;0;;0
316;0;0;0;;0
317;0;0;0;[min];0
318;0;0;0;[EV];0
319;0;0;0;[EV];0
321;0;0;0;;0
322;0;0;0;[mV]/[uA];0
323;0;0;0;[mV]/[uA];0
324;0;0;0;;0
325;0;0;0;;0
326;0;0;0;;0
327;0;0;0;[min];0
328;0;0;0;[EV];0
329;0;0;0;[EV];0
331;0;0;0;;0
332;0;0;0;[mV]/[uA];0
333;0;0;0;[mV]/[uA];0
334;0;0;0;;0
335;0;0;0;;0
336;0;0;0;;0
337;0;0;0;[min];0
338;0;0;0;[EV];0
339;0;0;0;[EV];0
401;0;0;0;;0
402;0;0;0;;0
403;0;0;0;;0
404;0;0;0;;0
405;0;0;0;[s];0
406;0;0;0;;0
407;0;0;0;[EV];0
408;0;0;0;[EV];0
411;0;0;0;;0
412;0;0;0;;0
413;0;0;0;;0
414;0;0;0;;0
415;0;0;0;[s];0
416;0;0;0;;0
417;0;0;0;[EV];0
418;0;0;0;[EV];0
421;0;0;0;;0
422;0;0;0;;0
423;0;0;0;;0
424;0;0;0;;0
425;0;0;0;[s];0
426;0;0;0;;0
427;0;0;0;[EV];0
428;0;0;0;[EV];0
431;0;0;0;;0
432;0;0;0;;0
433;0;0;0;;0
434;0;0;0;;0
435;0;0;0;[s];0
436;0;0;0;;0
437;0;0;0;[EV];0
438;0;0;0;[EV];0
501;0;0;0;;0
502;0;0;0;;0
503;0;0;0;[mV]/[uA];0
504;0;0;0;[mV]/[uA];0
505;0;0;0;;0
506;0;0;0;[0.1s];0
507;0;0;0;;0
508;0;0;0;;0
509;0;0;0;;0
510;0;0;0;;0
511;0;0;0;[s];0
512;0;0;0;[EV];0
513;0;0;0;;0
514;0;0;0;;0
515;0;0;0;[EV];0
516;0;0;0;;0
517;0;0;0;;0
518;0;0;0;[EV];0
519;0;0;0;;0
520;0;0;0;;0
521;0;0;0;[EV];0
522;0;0;0;;0
523;0;0;0;;0
551;0;0;0;;0
552;0;0;0;;0
553;0;0;0;[mV]/[uA];0
554;0;0;0;[mV]/[uA];0
555;0;0;0;;0
556;0;0;0;[0.1s];0
557;0;0;0;;0
558;0;0;0;;0
559;0;0;0;;0
560;0;0;0;;0
561;0;0;0;[s];0
562;0;0;0;[EV];0
563;0;0;0;;0
564;0;0;0;;0
565;0;0;0;[EV];0
566;0;0;0;;0
567;0;0;0;;0
568;0;0;0;[EV];0
569;0;0;0;;0
570;0;0;0;;0
571;0;0;0;[EV];0
572;0;0;0;;0
573;0;0;0;;0
601;0;0;0;;0
602;0;0;0;;0
603;0;0;0;[mV]/[uA];0
604;0;0;0;[mV]/[uA];0
605;0;0;0;;0
606;0;0;0;[0.1s];0
607;0;0;0;;0
608;0;0;0;;0
609;0;0;0;;0
610;0;0;0;;0
611;0;0;0;[s];0
612;0;0;0;;0
613;0;0;0;[EV];0
614;0;0;0;;0
615;0;0;0;;0
616;0;0;0;[EV];0
617;0;0;0;;0
618;0;0;0;;0
619;0;0;0;[EV];0
620;0;0;0;;0
621;0;0;0;;0
622;0;0;0;[EV];0
623;0;0;0;;0
624;0;0;0;;0
631;0;0;0;[0.01s];0
632;0;0;0;;0
633;0;0;0;;0
634;0;0;0;;0
635;0;0;0;;0
636;0;0;0;[0.01%];0
637;0;0;0;[0.01%];0
638;0;0;0;[0.01s];0
639;0;0;0;[0.01%];0
640;0;0;0;[0.01%];0
641;0;0;0;[EV];0
642;0;0;0;;0
643;0;0;0;;0
644;0;0;0;[EV];0
645;0;0;0;;0
646;0;0;0;;0
651;0;0;0;;0
652;0;0;0;;0
653;0;0;0;[mV]/[uA];0
654;0;0;0;[mV]/[uA];0
655;0;0;0;;0
656;0;0;0;[0.1s];0
657;0;0;0;;0
658;0;0;0;;0
659;0;0;0;;0
660;0;0;0;;0
661;0;0;0;[s];0
662;0;0;0;;0
663;0;0;0;[EV];0
664;0;0;0;;0
665;0;0;0;;0
666;0;0;0;[EV];0
667;0;0;0;;0
668;0;0;0;;0
669;0;0;0;[EV];0
670;0;0;0;;0
671;0;0;0;;0
672;0;0;0;[EV];0
673;0;0;0;;0
674;0;0;0;;0
681;0;0;0;[0.01s];0
682;0;0;0;;0
683;0;0;0;;0
684;0;0;0;;0
685;0;0;0;;0
686;0;0;0;[0.01%];0
687;0;0;0;[0.01%];0
688;0;0;0;[0.01s];0
689;0;0;0;[0.01%];0
690;0;0;0;[0.01%];0
691;0;0;0;[EV];0
692;0;0;0;;0
693;0;0;0;;0
694;0;0;0;[EV];0
695;0;0;0;;0
696;0;0;0;;0
